LockInHall/data/A2_fixedFreq/100kHz_270Deg.CSV

Model,DPO2024
Firmware Version,1.52

Point Format,Y,
Horizontal Units,S,
Horizontal Scale,1e-05,
Sample Interval,1e-09,
Filter Frequency,2e+08,
Record Length,100000,
Gating,0.0% to 100.0%,0.0% to 100.0%
Probe Attenuation,1,1
Vertical Units,V,V
Vertical Offset,0,0
Vertical Scale,0.1,0.1
Label,,
TIME,CH1,CH2
-5.00000e-05,0.044,0.02
-4.99990e-05,0.044,0.02
-4.99980e-05,0.044,0.02
-4.99970e-05,0.04,0.02
-4.99960e-05,0.044,0.02
-4.99950e-05,0.044,0.02
-4.99940e-05,0.044,0.02
-4.99930e-05,0.04,0.02
-4.99920e-05,0.04,0.02
-4.99910e-05,0.04,0.02
-4.99900e-05,0.04,0.02
-4.99890e-05,0.04,0.02
-4.99880e-05,0.04,0.02
-4.99870e-05,0.044,0.02
-4.99860e-05,0.044,0.02
-4.99850e-05,0.044,0.02
-4.99840e-05,0.044,0.02
-4.99830e-05,0.044,0.02
-4.99820e-05,0.048,0.02
-4.99810e-05,0.044,0.02
-4.99800e-05,0.044,0.02
-4.99790e-05,0.044,0.02
-4.99780e-05,0.048,0.02
-4.99770e-05,0.044,0.02
-4.99760e-05,0.044,0.02
-4.99750e-05,0.048,0.02
-4.99740e-05,0.048,0.02
-4.99730e-05,0.048,0.02
-4.99720e-05,0.048,0.024
-4.99710e-05,0.048,0.02
-4.99700e-05,0.052,0.02
-4.99690e-05,0.048,0.02
-4.99680e-05,0.048,0.02
-4.99670e-05,0.048,0.016
-4.99660e-05,0.048,0.02
-4.99650e-05,0.048,0.02
-4.99640e-05,0.052,0.02
-4.99630e-05,0.048,0.02
-4.99620e-05,0.052,0.02
-4.99610e-05,0.052,0.02
-4.99600e-05,0.052,0.02
-4.99590e-05,0.048,0.024
-4.99580e-05,0.052,0.024
-4.99570e-05,0.052,0.024
-4.99560e-05,0.052,0.02
-4.99550e-05,0.048,0.02
-4.99540e-05,0.048,0.02
-4.99530e-05,0.048,0.02
-4.99520e-05,0.052,0.02
-4.99510e-05,0.048,0.02
-4.99500e-05,0.048,0.02
-4.99490e-05,0.048,0.02
-4.99480e-05,0.048,0.02
-4.99470e-05,0.044,0.02
-4.99460e-05,0.044,0.02
-4.99450e-05,0.044,0.02
-4.99440e-05,0.048,0.02
-4.99430e-05,0.048,0.02
-4.99420e-05,0.048,0.02
-4.99410e-05,0.048,0.02
-4.99400e-05,0.048,0.02
-4.99390e-05,0.044,0.024
-4.99380e-05,0.048,0.024
-4.99370e-05,0.048,0.02
-4.99360e-05,0.052,0.02
-4.99350e-05,0.048,0.02
-4.99340e-05,0.048,0.02
-4.99330e-05,0.048,0.02
-4.99320e-05,0.048,0.024
-4.99310e-05,0.052,0.02
-4.99300e-05,0.052,0.024
-4.99290e-05,0.052,0.024
-4.99280e-05,0.052,0.024
-4.99270e-05,0.052,0.02
-4.99260e-05,0.048,0.024
-4.99250e-05,0.052,0.02
-4.99240e-05,0.052,0.02
-4.99230e-05,0.052,0.02
-4.99220e-05,0.052,0.02
-4.99210e-05,0.056,0.02
-4.99200e-05,0.056,0.02
-4.99190e-05,0.056,0.024
-4.99180e-05,0.056,0.024
-4.99170e-05,0.052,0.024
-4.99160e-05,0.052,0.024
-4.99150e-05,0.052,0.02
-4.99140e-05,0.052,0.02
-4.99130e-05,0.052,0.02
-4.99120e-05,0.056,0.02
-4.99110e-05,0.056,0.02
-4.99100e-05,0.056,0.02
-4.99090e-05,0.052,0.024
-4.99080e-05,0.052,0.024
-4.99070e-05,0.048,0.02
-4.99060e-05,0.052,0.02
-4.99050e-05,0.052,0.02
-4.99040e-05,0.052,0.02
-4.99030e-05,0.052,0.024
-4.99020e-05,0.052,0.02
-4.99010e-05,0.052,0.024
-4.99000e-05,0.052,0.02
-4.98990e-05,0.048,0.024
-4.98980e-05,0.052,0.024
-4.98970e-05,0.052,0.024
-4.98960e-05,0.052,0.024
-4.98950e-05,0.052,0.02
-4.98940e-05,0.052,0.02
-4.98930e-05,0.048,0.02
-4.98920e-05,0.048,0.02
-4.98910e-05,0.048,0.02
-4.98900e-05,0.052,0.02
-4.98890e-05,0.052,0.02
-4.98880e-05,0.052,0.02
-4.98870e-05,0.052,0.024
-4.98860e-05,0.052,0.02
-4.98850e-05,0.052,0.024
-4.98840e-05,0.052,0.024
-4.98830e-05,0.052,0.024
-4.98820e-05,0.052,0.024
-4.98810e-05,0.052,0.024
-4.98800e-05,0.052,0.024
-4.98790e-05,0.052,0.02
-4.98780e-05,0.052,0.024
-4.98770e-05,0.052,0.024
-4.98760e-05,0.052,0.024
-4.98750e-05,0.048,0.024
-4.98740e-05,0.052,0.024
-4.98730e-05,0.052,0.024
-4.98720e-05,0.052,0.024
-4.98710e-05,0.052,0.024
-4.98700e-05,0.052,0.024
-4.98690e-05,0.052,0.024
-4.98680e-05,0.052,0.024
-4.98670e-05,0.056,0.024
-4.98660e-05,0.056,0.024
-4.98650e-05,0.056,0.02
-4.98640e-05,0.056,0.02
-4.98630e-05,0.056,0.02
-4.98620e-05,0.056,0.024
-4.98610e-05,0.056,0.024
-4.98600e-05,0.056,0.02
-4.98590e-05,0.056,0.024
-4.98580e-05,0.056,0.024
-4.98570e-05,0.056,0.024
-4.98560e-05,0.056,0.024
-4.98550e-05,0.056,0.024
-4.98540e-05,0.056,0.024
-4.98530e-05,0.052,0.024
-4.98520e-05,0.056,0.024
-4.98510e-05,0.052,0.024
-4.98500e-05,0.056,0.024
-4.98490e-05,0.052,0.024
-4.98480e-05,0.056,0.024
-4.98470e-05,0.052,0.024
-4.98460e-05,0.056,0.024
-4.98450e-05,0.052,0.024
-4.98440e-05,0.056,0.024
-4.98430e-05,0.052,0.024
-4.98420e-05,0.052,0.024
-4.98410e-05,0.052,0.024
-4.98400e-05,0.056,0.024
-4.98390e-05,0.056,0.024
-4.98380e-05,0.056,0.024
-4.98370e-05,0.056,0.024
-4.98360e-05,0.056,0.024
-4.98350e-05,0.056,0.024
-4.98340e-05,0.056,0.024
-4.98330e-05,0.052,0.024
-4.98320e-05,0.052,0.024
-4.98310e-05,0.052,0.024
-4.98300e-05,0.056,0.024
-4.98290e-05,0.056,0.02
-4.98280e-05,0.056,0.024
-4.98270e-05,0.056,0.028
-4.98260e-05,0.06,0.024
-4.98250e-05,0.056,0.024
-4.98240e-05,0.056,0.024
-4.98230e-05,0.056,0.024
-4.98220e-05,0.056,0.024
-4.98210e-05,0.056,0.024
-4.98200e-05,0.056,0.024
-4.98190e-05,0.056,0.024
-4.98180e-05,0.06,0.024
-4.98170e-05,0.056,0.024
-4.98160e-05,0.056,0.024
-4.98150e-05,0.056,0.024
-4.98140e-05,0.06,0.024
-4.98130e-05,0.06,0.024
-4.98120e-05,0.056,0.024
-4.98110e-05,0.056,0.024
-4.98100e-05,0.056,0.028
-4.98090e-05,0.056,0.028
-4.98080e-05,0.06,0.028
-4.98070e-05,0.056,0.024
-4.98060e-05,0.056,0.024
-4.98050e-05,0.056,0.028
-4.98040e-05,0.056,0.024
-4.98030e-05,0.056,0.028
-4.98020e-05,0.056,0.028
-4.98010e-05,0.056,0.024
-4.98000e-05,0.056,0.024
-4.97990e-05,0.052,0.024
-4.97980e-05,0.056,0.024
-4.97970e-05,0.052,0.028
-4.97960e-05,0.056,0.024
-4.97950e-05,0.052,0.028
-4.97940e-05,0.056,0.024
-4.97930e-05,0.056,0.024
-4.97920e-05,0.056,0.024
-4.97910e-05,0.056,0.024
-4.97900e-05,0.056,0.024
-4.97890e-05,0.056,0.028
-4.97880e-05,0.056,0.028
-4.97870e-05,0.056,0.028
-4.97860e-05,0.056,0.028
-4.97850e-05,0.056,0.024
-4.97840e-05,0.056,0.028
-4.97830e-05,0.056,0.024
-4.97820e-05,0.056,0.028
-4.97810e-05,0.056,0.028
-4.97800e-05,0.06,0.028
-4.97790e-05,0.06,0.024
-4.97780e-05,0.056,0.024
-4.97770e-05,0.056,0.024
-4.97760e-05,0.056,0.028
-4.97750e-05,0.056,0.024
-4.97740e-05,0.056,0.028
-4.97730e-05,0.056,0.028
-4.97720e-05,0.056,0.024
-4.97710e-05,0.056,0.024
-4.97700e-05,0.056,0.028
-4.97690e-05,0.056,0.024
-4.97680e-05,0.056,0.028
-4.97670e-05,0.056,0.028
-4.97660e-05,0.056,0.028
-4.97650e-05,0.056,0.028
-4.97640e-05,0.056,0.024
-4.97630e-05,0.056,0.024
-4.97620e-05,0.056,0.028
-4.97610e-05,0.056,0.028
-4.97600e-05,0.06,0.028
-4.97590e-05,0.056,0.028
-4.97580e-05,0.06,0.028
-4.97570e-05,0.056,0.028
-4.97560e-05,0.06,0.028
-4.97550e-05,0.056,0.028
-4.97540e-05,0.056,0.024
-4.97530e-05,0.056,0.024
-4.97520e-05,0.056,0.028
-4.97510e-05,0.056,0.028
-4.97500e-05,0.06,0.028
-4.97490e-05,0.06,0.032
-4.97480e-05,0.06,0.028
-4.97470e-05,0.056,0.028
-4.97460e-05,0.06,0.028
-4.97450e-05,0.056,0.028
-4.97440e-05,0.06,0.024
-4.97430e-05,0.056,0.028
-4.97420e-05,0.06,0.028
-4.97410e-05,0.06,0.028
-4.97400e-05,0.06,0.024
-4.97390e-05,0.06,0.024
-4.97380e-05,0.06,0.028
-4.97370e-05,0.06,0.028
-4.97360e-05,0.06,0.028
-4.97350e-05,0.06,0.028
-4.97340e-05,0.06,0.028
-4.97330e-05,0.056,0.028
-4.97320e-05,0.06,0.024
-4.97310e-05,0.06,0.028
-4.97300e-05,0.06,0.028
-4.97290e-05,0.06,0.028
-4.97280e-05,0.06,0.028
-4.97270e-05,0.06,0.028
-4.97260e-05,0.06,0.028
-4.97250e-05,0.06,0.028
-4.97240e-05,0.06,0.028
-4.97230e-05,0.06,0.028
-4.97220e-05,0.06,0.028
-4.97210e-05,0.06,0.028
-4.97200e-05,0.064,0.024
-4.97190e-05,0.06,0.024
-4.97180e-05,0.06,0.024
-4.97170e-05,0.06,0.024
-4.97160e-05,0.06,0.024
-4.97150e-05,0.056,0.028
-4.97140e-05,0.06,0.028
-4.97130e-05,0.06,0.028
-4.97120e-05,0.06,0.028
-4.97110e-05,0.06,0.028
-4.97100e-05,0.06,0.028
-4.97090e-05,0.06,0.024
-4.97080e-05,0.06,0.028
-4.97070e-05,0.06,0.028
-4.97060e-05,0.06,0.028
-4.97050e-05,0.06,0.028
-4.97040e-05,0.064,0.028
-4.97030e-05,0.06,0.028
-4.97020e-05,0.064,0.028
-4.97010e-05,0.064,0.028
-4.97000e-05,0.064,0.028
-4.96990e-05,0.06,0.028
-4.96980e-05,0.06,0.028
-4.96970e-05,0.06,0.028
-4.96960e-05,0.06,0.028
-4.96950e-05,0.064,0.028
-4.96940e-05,0.064,0.028
-4.96930e-05,0.06,0.028
-4.96920e-05,0.06,0.028
-4.96910e-05,0.064,0.028
-4.96900e-05,0.064,0.028
-4.96890e-05,0.06,0.028
-4.96880e-05,0.06,0.028
-4.96870e-05,0.064,0.028
-4.96860e-05,0.064,0.028
-4.96850e-05,0.06,0.028
-4.96840e-05,0.064,0.028
-4.96830e-05,0.064,0.028
-4.96820e-05,0.064,0.028
-4.96810e-05,0.064,0.028
-4.96800e-05,0.064,0.028
-4.96790e-05,0.064,0.028
-4.96780e-05,0.064,0.028
-4.96770e-05,0.064,0.028
-4.96760e-05,0.064,0.028
-4.96750e-05,0.064,0.028
-4.96740e-05,0.064,0.028
-4.96730e-05,0.064,0.028
-4.96720e-05,0.064,0.028
-4.96710e-05,0.064,0.028
-4.96700e-05,0.064,0.028
-4.96690e-05,0.064,0.024
-4.96680e-05,0.064,0.028
-4.96670e-05,0.064,0.028
-4.96660e-05,0.064,0.028
-4.96650e-05,0.064,0.028
-4.96640e-05,0.06,0.028
-4.96630e-05,0.064,0.028
-4.96620e-05,0.064,0.028
-4.96610e-05,0.06,0.028
-4.96600e-05,0.064,0.032
-4.96590e-05,0.064,0.032
-4.96580e-05,0.068,0.032
-4.96570e-05,0.064,0.028
-4.96560e-05,0.064,0.028
-4.96550e-05,0.068,0.028
-4.96540e-05,0.068,0.032
-4.96530e-05,0.068,0.028
-4.96520e-05,0.068,0.028
-4.96510e-05,0.068,0.032
-4.96500e-05,0.068,0.028
-4.96490e-05,0.068,0.028
-4.96480e-05,0.068,0.032
-4.96470e-05,0.068,0.032
-4.96460e-05,0.068,0.032
-4.96450e-05,0.068,0.032
-4.96440e-05,0.068,0.028
-4.96430e-05,0.064,0.032
-4.96420e-05,0.068,0.028
-4.96410e-05,0.068,0.032
-4.96400e-05,0.068,0.028
-4.96390e-05,0.068,0.028
-4.96380e-05,0.068,0.028
-4.96370e-05,0.068,0.032
-4.96360e-05,0.068,0.032
-4.96350e-05,0.068,0.032
-4.96340e-05,0.068,0.032
-4.96330e-05,0.068,0.032
-4.96320e-05,0.068,0.032
-4.96310e-05,0.068,0.032
-4.96300e-05,0.068,0.032
-4.96290e-05,0.068,0.032
-4.96280e-05,0.068,0.032
-4.96270e-05,0.068,0.032
-4.96260e-05,0.068,0.032
-4.96250e-05,0.064,0.032
-4.96240e-05,0.068,0.032
-4.96230e-05,0.068,0.032
-4.96220e-05,0.068,0.028
-4.96210e-05,0.068,0.028
-4.96200e-05,0.072,0.032
-4.96190e-05,0.068,0.032
-4.96180e-05,0.064,0.028
-4.96170e-05,0.068,0.032
-4.96160e-05,0.068,0.028
-4.96150e-05,0.068,0.032
-4.96140e-05,0.068,0.028
-4.96130e-05,0.068,0.032
-4.96120e-05,0.072,0.032
-4.96110e-05,0.072,0.032
-4.96100e-05,0.072,0.032
-4.96090e-05,0.068,0.032
-4.96080e-05,0.072,0.032
-4.96070e-05,0.068,0.028
-4.96060e-05,0.068,0.032
-4.96050e-05,0.068,0.028
-4.96040e-05,0.068,0.032
-4.96030e-05,0.068,0.028
-4.96020e-05,0.072,0.032
-4.96010e-05,0.072,0.032
-4.96000e-05,0.072,0.032
-4.95990e-05,0.072,0.032
-4.95980e-05,0.072,0.032
-4.95970e-05,0.072,0.032
-4.95960e-05,0.072,0.032
-4.95950e-05,0.072,0.028
-4.95940e-05,0.072,0.032
-4.95930e-05,0.072,0.032
-4.95920e-05,0.072,0.032
-4.95910e-05,0.072,0.032
-4.95900e-05,0.072,0.032
-4.95890e-05,0.072,0.032
-4.95880e-05,0.072,0.032
-4.95870e-05,0.072,0.032
-4.95860e-05,0.072,0.032
-4.95850e-05,0.072,0.032
-4.95840e-05,0.072,0.032
-4.95830e-05,0.072,0.028
-4.95820e-05,0.072,0.032
-4.95810e-05,0.072,0.028
-4.95800e-05,0.076,0.032
-4.95790e-05,0.072,0.032
-4.95780e-05,0.072,0.032
-4.95770e-05,0.072,0.032
-4.95760e-05,0.072,0.032
-4.95750e-05,0.072,0.032
-4.95740e-05,0.072,0.028
-4.95730e-05,0.068,0.028
-4.95720e-05,0.072,0.032
-4.95710e-05,0.072,0.032
-4.95700e-05,0.072,0.032
-4.95690e-05,0.072,0.032
-4.95680e-05,0.072,0.032
-4.95670e-05,0.072,0.032
-4.95660e-05,0.072,0.032
-4.95650e-05,0.072,0.032
-4.95640e-05,0.072,0.032
-4.95630e-05,0.068,0.032
-4.95620e-05,0.072,0.032
-4.95610e-05,0.072,0.032
-4.95600e-05,0.072,0.032
-4.95590e-05,0.072,0.032
-4.95580e-05,0.072,0.032
-4.95570e-05,0.072,0.032
-4.95560e-05,0.072,0.032
-4.95550e-05,0.072,0.036
-4.95540e-05,0.072,0.032
-4.95530e-05,0.072,0.032
-4.95520e-05,0.072,0.032
-4.95510e-05,0.072,0.032
-4.95500e-05,0.072,0.032
-4.95490e-05,0.072,0.032
-4.95480e-05,0.076,0.032
-4.95470e-05,0.072,0.032
-4.95460e-05,0.072,0.032
-4.95450e-05,0.072,0.032
-4.95440e-05,0.072,0.028
-4.95430e-05,0.072,0.032
-4.95420e-05,0.072,0.032
-4.95410e-05,0.072,0.032
-4.95400e-05,0.076,0.032
-4.95390e-05,0.072,0.032
-4.95380e-05,0.076,0.032
-4.95370e-05,0.076,0.036
-4.95360e-05,0.072,0.032
-4.95350e-05,0.072,0.032
-4.95340e-05,0.072,0.032
-4.95330e-05,0.072,0.032
-4.95320e-05,0.076,0.032
-4.95310e-05,0.076,0.032
-4.95300e-05,0.076,0.032
-4.95290e-05,0.076,0.032
-4.95280e-05,0.076,0.032
-4.95270e-05,0.072,0.036
-4.95260e-05,0.076,0.036
-4.95250e-05,0.072,0.032
-4.95240e-05,0.072,0.032
-4.95230e-05,0.072,0.032
-4.95220e-05,0.072,0.032
-4.95210e-05,0.072,0.032
-4.95200e-05,0.076,0.032
-4.95190e-05,0.072,0.036
-4.95180e-05,0.072,0.032
-4.95170e-05,0.072,0.036
-4.95160e-05,0.072,0.036
-4.95150e-05,0.072,0.036
-4.95140e-05,0.072,0.032
-4.95130e-05,0.072,0.032
-4.95120e-05,0.072,0.032
-4.95110e-05,0.072,0.032
-4.95100e-05,0.076,0.032
-4.95090e-05,0.076,0.032
-4.95080e-05,0.076,0.032
-4.95070e-05,0.076,0.032
-4.95060e-05,0.076,0.032
-4.95050e-05,0.072,0.032
-4.95040e-05,0.076,0.032
-4.95030e-05,0.072,0.032
-4.95020e-05,0.076,0.032
-4.95010e-05,0.076,0.032
-4.95000e-05,0.076,0.032
-4.94990e-05,0.072,0.032
-4.94980e-05,0.076,0.032
-4.94970e-05,0.072,0.032
-4.94960e-05,0.072,0.032
-4.94950e-05,0.072,0.032
-4.94940e-05,0.076,0.032
-4.94930e-05,0.072,0.032
-4.94920e-05,0.076,0.032
-4.94910e-05,0.076,0.032
-4.94900e-05,0.076,0.032
-4.94890e-05,0.076,0.032
-4.94880e-05,0.076,0.032
-4.94870e-05,0.076,0.036
-4.94860e-05,0.076,0.032
-4.94850e-05,0.076,0.036
-4.94840e-05,0.076,0.032
-4.94830e-05,0.076,0.032
-4.94820e-05,0.076,0.032
-4.94810e-05,0.076,0.032
-4.94800e-05,0.08,0.032
-4.94790e-05,0.076,0.032
-4.94780e-05,0.076,0.032
-4.94770e-05,0.076,0.036
-4.94760e-05,0.08,0.036
-4.94750e-05,0.076,0.032
-4.94740e-05,0.076,0.032
-4.94730e-05,0.076,0.032
-4.94720e-05,0.08,0.032
-4.94710e-05,0.076,0.032
-4.94700e-05,0.076,0.032
-4.94690e-05,0.076,0.036
-4.94680e-05,0.08,0.032
-4.94670e-05,0.076,0.036
-4.94660e-05,0.076,0.032
-4.94650e-05,0.076,0.032
-4.94640e-05,0.08,0.032
-4.94630e-05,0.076,0.032
-4.94620e-05,0.08,0.032
-4.94610e-05,0.076,0.032
-4.94600e-05,0.08,0.032
-4.94590e-05,0.076,0.036
-4.94580e-05,0.076,0.036
-4.94570e-05,0.072,0.036
-4.94560e-05,0.076,0.032
-4.94550e-05,0.08,0.032
-4.94540e-05,0.08,0.032
-4.94530e-05,0.076,0.032
-4.94520e-05,0.076,0.032
-4.94510e-05,0.076,0.032
-4.94500e-05,0.08,0.032
-4.94490e-05,0.08,0.036
-4.94480e-05,0.08,0.036
-4.94470e-05,0.076,0.036
-4.94460e-05,0.076,0.032
-4.94450e-05,0.076,0.032
-4.94440e-05,0.076,0.036
-4.94430e-05,0.076,0.032
-4.94420e-05,0.08,0.036
-4.94410e-05,0.08,0.036
-4.94400e-05,0.08,0.036
-4.94390e-05,0.076,0.036
-4.94380e-05,0.08,0.036
-4.94370e-05,0.08,0.036
-4.94360e-05,0.08,0.036
-4.94350e-05,0.076,0.036
-4.94340e-05,0.08,0.032
-4.94330e-05,0.076,0.032
-4.94320e-05,0.08,0.032
-4.94310e-05,0.08,0.036
-4.94300e-05,0.08,0.036
-4.94290e-05,0.076,0.036
-4.94280e-05,0.08,0.036
-4.94270e-05,0.076,0.036
-4.94260e-05,0.08,0.032
-4.94250e-05,0.076,0.032
-4.94240e-05,0.08,0.036
-4.94230e-05,0.076,0.036
-4.94220e-05,0.08,0.032
-4.94210e-05,0.08,0.032
-4.94200e-05,0.08,0.032
-4.94190e-05,0.08,0.036
-4.94180e-05,0.08,0.036
-4.94170e-05,0.076,0.036
-4.94160e-05,0.076,0.036
-4.94150e-05,0.076,0.036
-4.94140e-05,0.08,0.036
-4.94130e-05,0.076,0.036
-4.94120e-05,0.08,0.036
-4.94110e-05,0.08,0.036
-4.94100e-05,0.08,0.036
-4.94090e-05,0.08,0.036
-4.94080e-05,0.08,0.036
-4.94070e-05,0.08,0.036
-4.94060e-05,0.076,0.036
-4.94050e-05,0.076,0.036
-4.94040e-05,0.08,0.032
-4.94030e-05,0.076,0.036
-4.94020e-05,0.08,0.036
-4.94010e-05,0.076,0.036
-4.94000e-05,0.08,0.036
-4.93990e-05,0.08,0.036
-4.93980e-05,0.08,0.036
-4.93970e-05,0.076,0.036
-4.93960e-05,0.08,0.036
-4.93950e-05,0.076,0.036
-4.93940e-05,0.08,0.036
-4.93930e-05,0.076,0.036
-4.93920e-05,0.08,0.036
-4.93910e-05,0.08,0.036
-4.93900e-05,0.08,0.036
-4.93890e-05,0.08,0.036
-4.93880e-05,0.08,0.036
-4.93870e-05,0.08,0.036
-4.93860e-05,0.08,0.036
-4.93850e-05,0.08,0.04
-4.93840e-05,0.08,0.036
-4.93830e-05,0.076,0.036
-4.93820e-05,0.08,0.032
-4.93810e-05,0.076,0.036
-4.93800e-05,0.08,0.04
-4.93790e-05,0.08,0.04
-4.93780e-05,0.08,0.036
-4.93770e-05,0.08,0.036
-4.93760e-05,0.084,0.036
-4.93750e-05,0.08,0.032
-4.93740e-05,0.076,0.036
-4.93730e-05,0.08,0.04
-4.93720e-05,0.08,0.036
-4.93710e-05,0.08,0.04
-4.93700e-05,0.08,0.036
-4.93690e-05,0.08,0.036
-4.93680e-05,0.084,0.036
-4.93670e-05,0.084,0.036
-4.93660e-05,0.084,0.036
-4.93650e-05,0.08,0.032
-4.93640e-05,0.084,0.036
-4.93630e-05,0.08,0.036
-4.93620e-05,0.084,0.036
-4.93610e-05,0.08,0.036
-4.93600e-05,0.084,0.036
-4.93590e-05,0.08,0.036
-4.93580e-05,0.084,0.036
-4.93570e-05,0.08,0.036
-4.93560e-05,0.084,0.036
-4.93550e-05,0.08,0.036
-4.93540e-05,0.08,0.036
-4.93530e-05,0.08,0.036
-4.93520e-05,0.084,0.036
-4.93510e-05,0.084,0.036
-4.93500e-05,0.084,0.036
-4.93490e-05,0.08,0.036
-4.93480e-05,0.084,0.036
-4.93470e-05,0.084,0.036
-4.93460e-05,0.084,0.036
-4.93450e-05,0.08,0.036
-4.93440e-05,0.084,0.036
-4.93430e-05,0.084,0.036
-4.93420e-05,0.084,0.036
-4.93410e-05,0.084,0.036
-4.93400e-05,0.084,0.036
-4.93390e-05,0.084,0.036
-4.93380e-05,0.084,0.036
-4.93370e-05,0.084,0.036
-4.93360e-05,0.084,0.036
-4.93350e-05,0.084,0.036
-4.93340e-05,0.084,0.036
-4.93330e-05,0.084,0.04
-4.93320e-05,0.084,0.036
-4.93310e-05,0.084,0.036
-4.93300e-05,0.088,0.036
-4.93290e-05,0.084,0.04
-4.93280e-05,0.084,0.036
-4.93270e-05,0.084,0.04
-4.93260e-05,0.088,0.036
-4.93250e-05,0.084,0.04
-4.93240e-05,0.088,0.036
-4.93230e-05,0.084,0.036
-4.93220e-05,0.084,0.036
-4.93210e-05,0.084,0.04
-4.93200e-05,0.088,0.036
-4.93190e-05,0.084,0.04
-4.93180e-05,0.088,0.036
-4.93170e-05,0.084,0.04
-4.93160e-05,0.084,0.036
-4.93150e-05,0.084,0.04
-4.93140e-05,0.084,0.036
-4.93130e-05,0.084,0.04
-4.93120e-05,0.088,0.04
-4.93110e-05,0.088,0.04
-4.93100e-05,0.088,0.036
-4.93090e-05,0.088,0.036
-4.93080e-05,0.088,0.04
-4.93070e-05,0.084,0.04
-4.93060e-05,0.084,0.036
-4.93050e-05,0.084,0.04
-4.93040e-05,0.088,0.036
-4.93030e-05,0.084,0.04
-4.93020e-05,0.084,0.036
-4.93010e-05,0.084,0.036
-4.93000e-05,0.088,0.036
-4.92990e-05,0.084,0.04
-4.92980e-05,0.088,0.04
-4.92970e-05,0.084,0.036
-4.92960e-05,0.088,0.036
-4.92950e-05,0.084,0.036
-4.92940e-05,0.088,0.036
-4.92930e-05,0.084,0.036
-4.92920e-05,0.088,0.036
-4.92910e-05,0.088,0.04
-4.92900e-05,0.088,0.036
-4.92890e-05,0.088,0.04
-4.92880e-05,0.088,0.04
-4.92870e-05,0.088,0.04
-4.92860e-05,0.084,0.04
-4.92850e-05,0.084,0.04
-4.92840e-05,0.088,0.036
-4.92830e-05,0.084,0.04
-4.92820e-05,0.088,0.036
-4.92810e-05,0.084,0.04
-4.92800e-05,0.088,0.036
-4.92790e-05,0.088,0.04
-4.92780e-05,0.088,0.036
-4.92770e-05,0.088,0.04
-4.92760e-05,0.088,0.036
-4.92750e-05,0.084,0.04
-4.92740e-05,0.084,0.036
-4.92730e-05,0.084,0.036
-4.92720e-05,0.092,0.04
-4.92710e-05,0.088,0.04
-4.92700e-05,0.088,0.04
-4.92690e-05,0.088,0.04
-4.92680e-05,0.088,0.04
-4.92670e-05,0.088,0.04
-4.92660e-05,0.088,0.036
-4.92650e-05,0.088,0.04
-4.92640e-05,0.088,0.036
-4.92630e-05,0.088,0.04
-4.92620e-05,0.088,0.04
-4.92610e-05,0.088,0.04
-4.92600e-05,0.088,0.04
-4.92590e-05,0.088,0.04
-4.92580e-05,0.092,0.04
-4.92570e-05,0.092,0.04
-4.92560e-05,0.092,0.04
-4.92550e-05,0.088,0.04
-4.92540e-05,0.092,0.04
-4.92530e-05,0.088,0.04
-4.92520e-05,0.092,0.04
-4.92510e-05,0.092,0.036
-4.92500e-05,0.092,0.04
-4.92490e-05,0.092,0.04
-4.92480e-05,0.096,0.04
-4.92470e-05,0.092,0.036
-4.92460e-05,0.092,0.036
-4.92450e-05,0.088,0.036
-4.92440e-05,0.092,0.036
-4.92430e-05,0.092,0.04
-4.92420e-05,0.092,0.04
-4.92410e-05,0.092,0.04
-4.92400e-05,0.092,0.04
-4.92390e-05,0.092,0.04
-4.92380e-05,0.092,0.04
-4.92370e-05,0.088,0.04
-4.92360e-05,0.092,0.04
-4.92350e-05,0.088,0.04
-4.92340e-05,0.092,0.04
-4.92330e-05,0.092,0.04
-4.92320e-05,0.092,0.036
-4.92310e-05,0.092,0.04
-4.92300e-05,0.092,0.036
-4.92290e-05,0.092,0.036
-4.92280e-05,0.096,0.036
-4.92270e-05,0.092,0.04
-4.92260e-05,0.092,0.04
-4.92250e-05,0.092,0.04
-4.92240e-05,0.092,0.036
-4.92230e-05,0.092,0.04
-4.92220e-05,0.092,0.04
-4.92210e-05,0.088,0.04
-4.92200e-05,0.092,0.04
-4.92190e-05,0.092,0.04
-4.92180e-05,0.092,0.04
-4.92170e-05,0.092,0.04
-4.92160e-05,0.092,0.036
-4.92150e-05,0.092,0.036
-4.92140e-05,0.092,0.036
-4.92130e-05,0.088,0.04
-4.92120e-05,0.092,0.04
-4.92110e-05,0.092,0.04
-4.92100e-05,0.092,0.04
-4.92090e-05,0.092,0.04
-4.92080e-05,0.092,0.04
-4.92070e-05,0.088,0.04
-4.92060e-05,0.092,0.04
-4.92050e-05,0.092,0.04
-4.92040e-05,0.092,0.04
-4.92030e-05,0.092,0.04
-4.92020e-05,0.092,0.04
-4.92010e-05,0.092,0.04
