LockInHall/data/A2_fixedPhase/12800Hz_PhaseShift30.csv

Model,DPO2024
Firmware Version,1.52

Point Format,Y,,,
Horizontal Units,S,,,
Horizontal Scale,2e-05,,,
Sample Interval,2e-09,,,
Filter Frequency,2e+08,,,
Record Length,100000,,,
Gating,0.0% to 100.0%,,0.0% to 100.0%,
Probe Attenuation,1,,1,
Vertical Units,V,,V,
Vertical Offset,0,,0,
Vertical Scale,0.05,,0.05,
Label,,,,
TIME,CH1,CH1 Peak Detect,CH2,CH2 Peak Detect
-1.0000e-04,0.077,0.077,-0.105,-0.107
-9.9998e-05,0.077,0.077,-0.107,-0.105
-9.9996e-05,0.075,0.073,-0.109,-0.109
-9.9994e-05,0.073,0.075,-0.107,-0.107
-9.9992e-05,0.073,0.071,-0.107,-0.107
-9.9990e-05,0.073,0.073,-0.105,-0.105
-9.9988e-05,0.073,0.069,-0.107,-0.109
-9.9986e-05,0.069,0.073,-0.109,-0.105
-9.9984e-05,0.071,0.071,-0.107,-0.107
-9.9982e-05,0.071,0.071,-0.107,-0.105
-9.9980e-05,0.071,0.071,-0.107,-0.107
-9.9978e-05,0.071,0.071,-0.105,-0.105
-9.9976e-05,0.073,0.071,-0.109,-0.109
-9.9974e-05,0.071,0.073,-0.109,-0.107
-9.9972e-05,0.071,0.069,-0.107,-0.109
-9.9970e-05,0.073,0.073,-0.105,-0.105
-9.9968e-05,0.073,0.073,-0.105,-0.105
-9.9966e-05,0.073,0.073,-0.105,-0.105
-9.9964e-05,0.071,0.071,-0.109,-0.109
-9.9962e-05,0.075,0.075,-0.107,-0.105
-9.9960e-05,0.073,0.073,-0.107,-0.107
-9.9958e-05,0.073,0.073,-0.107,-0.103
-9.9956e-05,0.073,0.073,-0.105,-0.107
-9.9954e-05,0.073,0.073,-0.107,-0.105
-9.9952e-05,0.075,0.073,-0.109,-0.109
-9.9950e-05,0.075,0.075,-0.109,-0.105
-9.9948e-05,0.073,0.073,-0.107,-0.107
-9.9946e-05,0.073,0.073,-0.107,-0.107
-9.9944e-05,0.075,0.073,-0.107,-0.107
-9.9942e-05,0.075,0.075,-0.107,-0.105
-9.9940e-05,0.073,0.073,-0.107,-0.107
-9.9938e-05,0.073,0.075,-0.107,-0.105
-9.9936e-05,0.073,0.073,-0.109,-0.109
-9.9934e-05,0.073,0.073,-0.107,-0.107
-9.9932e-05,0.073,0.073,-0.107,-0.107
-9.9930e-05,0.075,0.075,-0.105,-0.105
-9.9928e-05,0.075,0.075,-0.107,-0.107
-9.9926e-05,0.075,0.075,-0.107,-0.105
-9.9924e-05,0.073,0.073,-0.107,-0.107
-9.9922e-05,0.075,0.075,-0.107,-0.105
-9.9920e-05,0.075,0.073,-0.105,-0.107
-9.9918e-05,0.073,0.075,-0.107,-0.103
-9.9916e-05,0.071,0.071,-0.107,-0.107
-9.9914e-05,0.071,0.073,-0.107,-0.105
-9.9912e-05,0.071,0.071,-0.105,-0.107
-9.9910e-05,0.075,0.075,-0.107,-0.103
-9.9908e-05,0.073,0.073,-0.107,-0.107
-9.9906e-05,0.073,0.073,-0.107,-0.105
-9.9904e-05,0.073,0.073,-0.107,-0.107
-9.9902e-05,0.073,0.073,-0.105,-0.105
-9.9900e-05,0.075,0.073,-0.107,-0.107
-9.9898e-05,0.077,0.077,-0.107,-0.105
-9.9896e-05,0.075,0.075,-0.107,-0.107
-9.9894e-05,0.077,0.077,-0.105,-0.105
-9.9892e-05,0.077,0.077,-0.107,-0.107
-9.9890e-05,0.077,0.077,-0.107,-0.103
-9.9888e-05,0.077,0.077,-0.107,-0.107
-9.9886e-05,0.077,0.077,-0.105,-0.105
-9.9884e-05,0.077,0.075,-0.107,-0.107
-9.9882e-05,0.075,0.077,-0.107,-0.105
-9.9880e-05,0.073,0.073,-0.107,-0.107
-9.9878e-05,0.075,0.075,-0.105,-0.105
-9.9876e-05,0.073,0.071,-0.105,-0.107
-9.9874e-05,0.071,0.075,-0.107,-0.105
-9.9872e-05,0.071,0.071,-0.107,-0.107
-9.9870e-05,0.071,0.071,-0.107,-0.105
-9.9868e-05,0.071,0.069,-0.107,-0.109
-9.9866e-05,0.071,0.071,-0.109,-0.105
-9.9864e-05,0.071,0.069,-0.109,-0.109
-9.9862e-05,0.071,0.071,-0.107,-0.105
-9.9860e-05,0.071,0.071,-0.105,-0.107
-9.9858e-05,0.073,0.073,-0.107,-0.105
-9.9856e-05,0.075,0.073,-0.107,-0.107
-9.9854e-05,0.073,0.075,-0.107,-0.103
-9.9852e-05,0.073,0.071,-0.107,-0.107
-9.9850e-05,0.075,0.075,-0.107,-0.105
-9.9848e-05,0.073,0.073,-0.107,-0.107
-9.9846e-05,0.075,0.075,-0.105,-0.105
-9.9844e-05,0.073,0.073,-0.107,-0.107
-9.9842e-05,0.075,0.075,-0.105,-0.105
-9.9840e-05,0.077,0.075,-0.105,-0.105
-9.9838e-05,0.075,0.077,-0.105,-0.103
-9.9836e-05,0.075,0.073,-0.105,-0.107
-9.9834e-05,0.075,0.075,-0.107,-0.105
-9.9832e-05,0.075,0.075,-0.107,-0.107
-9.9830e-05,0.075,0.075,-0.107,-0.105
-9.9828e-05,0.075,0.073,-0.107,-0.107
-9.9826e-05,0.073,0.075,-0.107,-0.105
-9.9824e-05,0.073,0.071,-0.107,-0.107
-9.9822e-05,0.071,0.073,-0.107,-0.107
-9.9820e-05,0.073,0.071,-0.107,-0.107
-9.9818e-05,0.073,0.073,-0.105,-0.105
-9.9816e-05,0.075,0.073,-0.107,-0.107
-9.9814e-05,0.075,0.075,-0.107,-0.105
-9.9812e-05,0.075,0.075,-0.107,-0.107
-9.9810e-05,0.075,0.075,-0.105,-0.105
-9.9808e-05,0.075,0.075,-0.107,-0.107
-9.9806e-05,0.075,0.075,-0.105,-0.105
-9.9804e-05,0.073,0.073,-0.107,-0.107
-9.9802e-05,0.077,0.077,-0.105,-0.105
-9.9800e-05,0.077,0.075,-0.105,-0.105
-9.9798e-05,0.075,0.077,-0.105,-0.103
-9.9796e-05,0.075,0.075,-0.107,-0.107
-9.9794e-05,0.077,0.077,-0.105,-0.105
-9.9792e-05,0.075,0.075,-0.105,-0.107
-9.9790e-05,0.077,0.077,-0.107,-0.103
-9.9788e-05,0.077,0.075,-0.107,-0.107
-9.9786e-05,0.075,0.077,-0.107,-0.105
-9.9784e-05,0.077,0.077,-0.105,-0.107
-9.9782e-05,0.077,0.077,-0.107,-0.105
-9.9780e-05,0.079,0.077,-0.107,-0.107
-9.9778e-05,0.079,0.079,-0.107,-0.105
-9.9776e-05,0.077,0.075,-0.109,-0.109
-9.9774e-05,0.075,0.077,-0.109,-0.107
-9.9772e-05,0.075,0.075,-0.107,-0.107
-9.9770e-05,0.077,0.077,-0.105,-0.105
-9.9768e-05,0.077,0.075,-0.107,-0.107
-9.9766e-05,0.077,0.077,-0.107,-0.105
-9.9764e-05,0.075,0.075,-0.107,-0.107
-9.9762e-05,0.075,0.075,-0.107,-0.107
-9.9760e-05,0.073,0.071,-0.107,-0.107
-9.9758e-05,0.071,0.073,-0.107,-0.105
-9.9756e-05,0.073,0.071,-0.107,-0.107
-9.9754e-05,0.071,0.073,-0.105,-0.105
-9.9752e-05,0.073,0.073,-0.107,-0.107
-9.9750e-05,0.073,0.073,-0.107,-0.105
-9.9748e-05,0.071,0.071,-0.107,-0.109
-9.9746e-05,0.071,0.071,-0.109,-0.105
-9.9744e-05,0.071,0.071,-0.107,-0.107
-9.9742e-05,0.075,0.075,-0.107,-0.105
-9.9740e-05,0.075,0.073,-0.107,-0.107
-9.9738e-05,0.073,0.075,-0.107,-0.105
-9.9736e-05,0.073,0.071,-0.107,-0.107
-9.9734e-05,0.071,0.073,-0.107,-0.105
-9.9732e-05,0.073,0.073,-0.107,-0.107
-9.9730e-05,0.075,0.075,-0.107,-0.105
-9.9728e-05,0.075,0.073,-0.105,-0.107
-9.9726e-05,0.075,0.075,-0.107,-0.105
-9.9724e-05,0.073,0.071,-0.107,-0.107
-9.9722e-05,0.073,0.073,-0.107,-0.105
-9.9720e-05,0.075,0.075,-0.105,-0.105
-9.9718e-05,0.075,0.075,-0.105,-0.105
-9.9716e-05,0.073,0.071,-0.105,-0.107
-9.9714e-05,0.071,0.073,-0.107,-0.103
-9.9712e-05,0.071,0.069,-0.107,-0.107
-9.9710e-05,0.073,0.073,-0.107,-0.105
-9.9708e-05,0.073,0.071,-0.107,-0.107
-9.9706e-05,0.071,0.073,-0.107,-0.105
-9.9704e-05,0.073,0.073,-0.107,-0.107
-9.9702e-05,0.073,0.073,-0.107,-0.107
-9.9700e-05,0.073,0.073,-0.107,-0.107
-9.9698e-05,0.075,0.075,-0.107,-0.105
-9.9696e-05,0.073,0.073,-0.107,-0.107
-9.9694e-05,0.073,0.073,-0.107,-0.105
-9.9692e-05,0.073,0.073,-0.107,-0.107
-9.9690e-05,0.073,0.073,-0.105,-0.105
-9.9688e-05,0.073,0.073,-0.107,-0.107
-9.9686e-05,0.073,0.073,-0.107,-0.105
-9.9684e-05,0.073,0.071,-0.107,-0.107
-9.9682e-05,0.073,0.073,-0.107,-0.105
-9.9680e-05,0.071,0.071,-0.107,-0.107
-9.9678e-05,0.071,0.073,-0.105,-0.105
-9.9676e-05,0.071,0.071,-0.109,-0.109
-9.9674e-05,0.071,0.071,-0.107,-0.105
-9.9672e-05,0.071,0.071,-0.107,-0.107
-9.9670e-05,0.071,0.071,-0.107,-0.105
-9.9668e-05,0.071,0.071,-0.107,-0.107
-9.9666e-05,0.071,0.071,-0.107,-0.105
-9.9664e-05,0.071,0.069,-0.105,-0.107
-9.9662e-05,0.071,0.071,-0.107,-0.105
-9.9660e-05,0.071,0.069,-0.107,-0.107
-9.9658e-05,0.071,0.071,-0.107,-0.105
-9.9656e-05,0.071,0.069,-0.107,-0.109
-9.9654e-05,0.071,0.071,-0.109,-0.107
-9.9652e-05,0.073,0.071,-0.107,-0.109
-9.9650e-05,0.071,0.073,-0.105,-0.103
-9.9648e-05,0.071,0.071,-0.107,-0.107
-9.9646e-05,0.071,0.071,-0.107,-0.105
-9.9644e-05,0.071,0.071,-0.107,-0.107
-9.9642e-05,0.071,0.071,-0.103,-0.103
-9.9640e-05,0.069,0.069,-0.107,-0.107
-9.9638e-05,0.069,0.069,-0.107,-0.103
-9.9636e-05,0.071,0.069,-0.107,-0.107
-9.9634e-05,0.069,0.071,-0.107,-0.107
-9.9632e-05,0.073,0.069,-0.107,-0.107
-9.9630e-05,0.069,0.073,-0.107,-0.105
-9.9628e-05,0.069,0.067,-0.107,-0.107
-9.9626e-05,0.071,0.071,-0.107,-0.105
-9.9624e-05,0.069,0.069,-0.109,-0.109
-9.9622e-05,0.073,0.073,-0.107,-0.107
-9.9620e-05,0.071,0.071,-0.105,-0.107
-9.9618e-05,0.073,0.073,-0.107,-0.105
-9.9616e-05,0.071,0.071,-0.107,-0.107
-9.9614e-05,0.071,0.073,-0.107,-0.105
-9.9612e-05,0.071,0.071,-0.107,-0.107
-9.9610e-05,0.071,0.071,-0.105,-0.105
-9.9608e-05,0.071,0.069,-0.105,-0.105
-9.9606e-05,0.069,0.071,-0.105,-0.105
-9.9604e-05,0.071,0.071,-0.107,-0.107
-9.9602e-05,0.071,0.071,-0.107,-0.105
-9.9600e-05,0.071,0.069,-0.105,-0.107
-9.9598e-05,0.069,0.071,-0.107,-0.105
-9.9596e-05,0.069,0.067,-0.107,-0.107
-9.9594e-05,0.069,0.069,-0.105,-0.103
-9.9592e-05,0.071,0.069,-0.105,-0.107
-9.9590e-05,0.071,0.071,-0.107,-0.105
-9.9588e-05,0.071,0.069,-0.105,-0.107
-9.9586e-05,0.069,0.071,-0.107,-0.105
-9.9584e-05,0.069,0.069,-0.107,-0.107
-9.9582e-05,0.071,0.071,-0.107,-0.107
-9.9580e-05,0.073,0.071,-0.107,-0.107
-9.9578e-05,0.071,0.073,-0.105,-0.105
-9.9576e-05,0.069,0.069,-0.105,-0.107
-9.9574e-05,0.071,0.071,-0.107,-0.105
-9.9572e-05,0.073,0.071,-0.107,-0.107
-9.9570e-05,0.073,0.073,-0.107,-0.105
-9.9568e-05,0.071,0.069,-0.107,-0.107
-9.9566e-05,0.069,0.071,-0.105,-0.105
-9.9564e-05,0.071,0.071,-0.109,-0.109
-9.9562e-05,0.071,0.071,-0.107,-0.105
-9.9560e-05,0.071,0.071,-0.107,-0.107
-9.9558e-05,0.071,0.071,-0.107,-0.105
-9.9556e-05,0.071,0.069,-0.105,-0.107
-9.9554e-05,0.069,0.071,-0.107,-0.105
-9.9552e-05,0.069,0.067,-0.107,-0.109
-9.9550e-05,0.069,0.069,-0.107,-0.105
-9.9548e-05,0.069,0.067,-0.107,-0.107
-9.9546e-05,0.069,0.069,-0.107,-0.105
-9.9544e-05,0.069,0.067,-0.107,-0.107
-9.9542e-05,0.067,0.069,-0.107,-0.105
-9.9540e-05,0.069,0.067,-0.107,-0.107
-9.9538e-05,0.069,0.069,-0.107,-0.105
-9.9536e-05,0.067,0.067,-0.105,-0.109
-9.9534e-05,0.067,0.067,-0.109,-0.105
-9.9532e-05,0.069,0.069,-0.107,-0.107
-9.9530e-05,0.069,0.069,-0.107,-0.105
-9.9528e-05,0.069,0.067,-0.107,-0.107
-9.9526e-05,0.069,0.069,-0.107,-0.105
-9.9524e-05,0.069,0.067,-0.107,-0.107
-9.9522e-05,0.069,0.069,-0.105,-0.105
-9.9520e-05,0.069,0.069,-0.105,-0.105
-9.9518e-05,0.069,0.069,-0.105,-0.103
-9.9516e-05,0.071,0.069,-0.109,-0.109
-9.9514e-05,0.071,0.071,-0.109,-0.107
-9.9512e-05,0.069,0.069,-0.107,-0.107
-9.9510e-05,0.071,0.071,-0.105,-0.105
-9.9508e-05,0.073,0.071,-0.107,-0.107
-9.9506e-05,0.071,0.073,-0.107,-0.105
-9.9504e-05,0.071,0.071,-0.107,-0.107
-9.9502e-05,0.071,0.071,-0.107,-0.107
-9.9500e-05,0.071,0.071,-0.105,-0.107
-9.9498e-05,0.075,0.075,-0.107,-0.103
-9.9496e-05,0.071,0.071,-0.107,-0.107
-9.9494e-05,0.071,0.073,-0.107,-0.105
-9.9492e-05,0.071,0.071,-0.107,-0.107
-9.9490e-05,0.073,0.073,-0.107,-0.103
-9.9488e-05,0.073,0.073,-0.107,-0.107
-9.9486e-05,0.073,0.073,-0.107,-0.105
-9.9484e-05,0.073,0.073,-0.107,-0.107
-9.9482e-05,0.073,0.073,-0.105,-0.105
-9.9480e-05,0.073,0.073,-0.107,-0.107
-9.9478e-05,0.073,0.075,-0.107,-0.105
-9.9476e-05,0.071,0.071,-0.107,-0.107
-9.9474e-05,0.073,0.073,-0.107,-0.105
-9.9472e-05,0.073,0.071,-0.109,-0.109
-9.9470e-05,0.075,0.075,-0.109,-0.107
-9.9468e-05,0.075,0.075,-0.107,-0.107
-9.9466e-05,0.075,0.075,-0.107,-0.107
-9.9464e-05,0.073,0.073,-0.105,-0.107
-9.9462e-05,0.075,0.075,-0.107,-0.105
-9.9460e-05,0.075,0.073,-0.107,-0.107
-9.9458e-05,0.075,0.075,-0.107,-0.105
-9.9456e-05,0.073,0.073,-0.107,-0.107
-9.9454e-05,0.073,0.073,-0.107,-0.105
-9.9452e-05,0.071,0.071,-0.107,-0.107
-9.9450e-05,0.073,0.073,-0.107,-0.105
-9.9448e-05,0.073,0.071,-0.107,-0.109
-9.9446e-05,0.071,0.073,-0.109,-0.105
-9.9444e-05,0.071,0.071,-0.109,-0.109
-9.9442e-05,0.071,0.071,-0.107,-0.107
-9.9440e-05,0.071,0.069,-0.107,-0.107
-9.9438e-05,0.069,0.071,-0.107,-0.103
-9.9436e-05,0.067,0.067,-0.107,-0.109
-9.9434e-05,0.067,0.067,-0.109,-0.105
-9.9432e-05,0.067,0.067,-0.107,-0.107
-9.9430e-05,0.069,0.069,-0.107,-0.105
-9.9428e-05,0.069,0.067,-0.107,-0.109
-9.9426e-05,0.067,0.069,-0.109,-0.105
-9.9424e-05,0.067,0.065,-0.109,-0.109
-9.9422e-05,0.069,0.069,-0.105,-0.105
-9.9420e-05,0.071,0.069,-0.107,-0.107
-9.9418e-05,0.069,0.071,-0.107,-0.103
-9.9416e-05,0.067,0.065,-0.107,-0.107
-9.9414e-05,0.067,0.069,-0.105,-0.105
-9.9412e-05,0.071,0.069,-0.105,-0.105
-9.9410e-05,0.071,0.071,-0.105,-0.105
-9.9408e-05,0.071,0.071,-0.107,-0.107
-9.9406e-05,0.071,0.071,-0.107,-0.105
-9.9404e-05,0.069,0.069,-0.107,-0.107
-9.9402e-05,0.069,0.071,-0.105,-0.105
-9.9400e-05,0.071,0.069,-0.105,-0.107
-9.9398e-05,0.071,0.071,-0.107,-0.105
-9.9396e-05,0.071,0.069,-0.107,-0.107
-9.9394e-05,0.069,0.071,-0.107,-0.105
-9.9392e-05,0.069,0.069,-0.109,-0.109
-9.9390e-05,0.069,0.069,-0.105,-0.105
-9.9388e-05,0.069,0.069,-0.107,-0.107
-9.9386e-05,0.069,0.069,-0.107,-0.105
-9.9384e-05,0.069,0.069,-0.107,-0.107
-9.9382e-05,0.069,0.069,-0.107,-0.105
-9.9380e-05,0.069,0.069,-0.107,-0.107
-9.9378e-05,0.073,0.073,-0.107,-0.105
-9.9376e-05,0.071,0.069,-0.107,-0.107
-9.9374e-05,0.069,0.071,-0.107,-0.105
-9.9372e-05,0.069,0.069,-0.105,-0.107
-9.9370e-05,0.071,0.071,-0.107,-0.105
-9.9368e-05,0.075,0.071,-0.105,-0.107
-9.9366e-05,0.073,0.075,-0.107,-0.105
-9.9364e-05,0.073,0.071,-0.107,-0.107
-9.9362e-05,0.073,0.073,-0.107,-0.105
-9.9360e-05,0.069,0.069,-0.107,-0.107
-9.9358e-05,0.069,0.071,-0.105,-0.105
-9.9356e-05,0.071,0.069,-0.107,-0.107
-9.9354e-05,0.071,0.071,-0.105,-0.105
-9.9352e-05,0.071,0.069,-0.105,-0.107
-9.9350e-05,0.071,0.071,-0.107,-0.105
-9.9348e-05,0.069,0.067,-0.103,-0.107
-9.9346e-05,0.069,0.069,-0.107,-0.103
-9.9344e-05,0.069,0.069,-0.107,-0.107
-9.9342e-05,0.069,0.069,-0.107,-0.107
-9.9340e-05,0.069,0.067,-0.105,-0.105
-9.9338e-05,0.069,0.069,-0.105,-0.105
-9.9336e-05,0.069,0.067,-0.107,-0.107
-9.9334e-05,0.069,0.069,-0.107,-0.105
-9.9332e-05,0.069,0.069,-0.105,-0.107
-9.9330e-05,0.069,0.069,-0.107,-0.105
-9.9328e-05,0.067,0.067,-0.107,-0.107
-9.9326e-05,0.067,0.067,-0.107,-0.105
-9.9324e-05,0.067,0.067,-0.107,-0.107
-9.9322e-05,0.067,0.067,-0.107,-0.107
-9.9320e-05,0.067,0.065,-0.105,-0.107
-9.9318e-05,0.065,0.067,-0.107,-0.105
-9.9316e-05,0.065,0.065,-0.107,-0.107
-9.9314e-05,0.065,0.065,-0.105,-0.105
-9.9312e-05,0.067,0.065,-0.105,-0.105
-9.9310e-05,0.067,0.067,-0.105,-0.105
-9.9308e-05,0.069,0.067,-0.107,-0.107
-9.9306e-05,0.067,0.069,-0.107,-0.105
-9.9304e-05,0.067,0.065,-0.107,-0.107
-9.9302e-05,0.069,0.069,-0.105,-0.105
-9.9300e-05,0.069,0.067,-0.107,-0.107
-9.9298e-05,0.069,0.069,-0.107,-0.103
-9.9296e-05,0.067,0.067,-0.107,-0.107
-9.9294e-05,0.069,0.069,-0.107,-0.105
-9.9292e-05,0.069,0.069,-0.107,-0.107
-9.9290e-05,0.069,0.069,-0.107,-0.105
-9.9288e-05,0.069,0.067,-0.105,-0.107
-9.9286e-05,0.069,0.069,-0.107,-0.105
-9.9284e-05,0.069,0.067,-0.107,-0.107
-9.9282e-05,0.067,0.069,-0.105,-0.105
-9.9280e-05,0.065,0.065,-0.105,-0.107
-9.9278e-05,0.065,0.067,-0.107,-0.105
-9.9276e-05,0.065,0.065,-0.107,-0.107
-9.9274e-05,0.065,0.065,-0.107,-0.105
-9.9272e-05,0.067,0.067,-0.107,-0.107
-9.9270e-05,0.067,0.067,-0.107,-0.105
-9.9268e-05,0.067,0.065,-0.105,-0.107
-9.9266e-05,0.065,0.067,-0.107,-0.105
-9.9264e-05,0.063,0.063,-0.105,-0.105
-9.9262e-05,0.065,0.065,-0.105,-0.105
-9.9260e-05,0.067,0.067,-0.105,-0.105
-9.9258e-05,0.067,0.067,-0.105,-0.105
-9.9256e-05,0.067,0.067,-0.107,-0.107
-9.9254e-05,0.067,0.067,-0.107,-0.105
-9.9252e-05,0.069,0.069,-0.107,-0.109
-9.9250e-05,0.069,0.069,-0.109,-0.105
-9.9248e-05,0.067,0.067,-0.107,-0.107
-9.9246e-05,0.067,0.067,-0.107,-0.105
-9.9244e-05,0.067,0.067,-0.107,-0.107
-9.9242e-05,0.069,0.069,-0.107,-0.105
-9.9240e-05,0.067,0.067,-0.107,-0.107
-9.9238e-05,0.067,0.069,-0.107,-0.105
-9.9236e-05,0.065,0.065,-0.107,-0.107
-9.9234e-05,0.065,0.067,-0.107,-0.105
-9.9232e-05,0.067,0.065,-0.107,-0.107
-9.9230e-05,0.067,0.067,-0.107,-0.105
-9.9228e-05,0.069,0.067,-0.107,-0.107
-9.9226e-05,0.067,0.069,-0.105,-0.105
-9.9224e-05,0.067,0.067,-0.107,-0.109
-9.9222e-05,0.069,0.069,-0.109,-0.105
-9.9220e-05,0.067,0.067,-0.107,-0.109
-9.9218e-05,0.067,0.067,-0.107,-0.105
-9.9216e-05,0.067,0.065,-0.107,-0.109
-9.9214e-05,0.067,0.067,-0.109,-0.103
-9.9212e-05,0.067,0.067,-0.107,-0.107
-9.9210e-05,0.069,0.069,-0.107,-0.105
-9.9208e-05,0.067,0.065,-0.107,-0.107
-9.9206e-05,0.067,0.067,-0.105,-0.103
-9.9204e-05,0.067,0.067,-0.109,-0.109
-9.9202e-05,0.067,0.067,-0.105,-0.105
-9.9200e-05,0.067,0.067,-0.107,-0.107
-9.9198e-05,0.067,0.067,-0.107,-0.105
-9.9196e-05,0.065,0.065,-0.109,-0.109
-9.9194e-05,0.065,0.065,-0.107,-0.105
-9.9192e-05,0.065,0.063,-0.107,-0.107
-9.9190e-05,0.067,0.067,-0.107,-0.103
-9.9188e-05,0.067,0.067,-0.107,-0.109
-9.9186e-05,0.067,0.067,-0.109,-0.105
-9.9184e-05,0.067,0.067,-0.109,-0.109
-9.9182e-05,0.069,0.069,-0.107,-0.107
-9.9180e-05,0.069,0.069,-0.105,-0.107
-9.9178e-05,0.069,0.069,-0.107,-0.105
-9.9176e-05,0.067,0.067,-0.107,-0.107
-9.9174e-05,0.067,0.067,-0.107,-0.105
-9.9172e-05,0.067,0.067,-0.105,-0.105
-9.9170e-05,0.067,0.067,-0.105,-0.103
-9.9168e-05,0.067,0.067,-0.105,-0.109
-9.9166e-05,0.069,0.069,-0.109,-0.105
-9.9164e-05,0.069,0.067,-0.107,-0.107
-9.9162e-05,0.067,0.069,-0.107,-0.105
-9.9160e-05,0.065,0.065,-0.107,-0.107
-9.9158e-05,0.067,0.067,-0.107,-0.103
-9.9156e-05,0.065,0.065,-0.107,-0.107
-9.9154e-05,0.069,0.069,-0.107,-0.105
-9.9152e-05,0.069,0.069,-0.107,-0.107
-9.9150e-05,0.069,0.069,-0.107,-0.105
-9.9148e-05,0.067,0.065,-0.107,-0.109
-9.9146e-05,0.065,0.069,-0.109,-0.105
-9.9144e-05,0.069,0.065,-0.107,-0.107
-9.9142e-05,0.071,0.071,-0.107,-0.105
-9.9140e-05,0.071,0.069,-0.107,-0.107
-9.9138e-05,0.069,0.071,-0.107,-0.105
-9.9136e-05,0.069,0.067,-0.107,-0.107
-9.9134e-05,0.069,0.069,-0.105,-0.105
-9.9132e-05,0.069,0.067,-0.105,-0.107
-9.9130e-05,0.069,0.069,-0.107,-0.105
-9.9128e-05,0.069,0.069,-0.105,-0.105
-9.9126e-05,0.069,0.069,-0.105,-0.103
-9.9124e-05,0.069,0.069,-0.105,-0.105
-9.9122e-05,0.069,0.069,-0.105,-0.103
-9.9120e-05,0.069,0.069,-0.105,-0.105
-9.9118e-05,0.069,0.069,-0.105,-0.103
-9.9116e-05,0.067,0.067,-0.107,-0.107
-9.9114e-05,0.067,0.069,-0.107,-0.105
-9.9112e-05,0.069,0.069,-0.107,-0.107
-9.9110e-05,0.069,0.069,-0.107,-0.105
-9.9108e-05,0.067,0.067,-0.105,-0.107
-9.9106e-05,0.067,0.069,-0.107,-0.103
-9.9104e-05,0.065,0.065,-0.107,-0.107
-9.9102e-05,0.067,0.067,-0.107,-0.105
-9.9100e-05,0.067,0.067,-0.107,-0.107
-9.9098e-05,0.067,0.067,-0.105,-0.105
-9.9096e-05,0.067,0.067,-0.107,-0.107
-9.9094e-05,0.069,0.069,-0.107,-0.105
-9.9092e-05,0.069,0.069,-0.107,-0.107
-9.9090e-05,0.071,0.071,-0.107,-0.105
-9.9088e-05,0.069,0.069,-0.105,-0.105
-9.9086e-05,0.069,0.071,-0.105,-0.105
-9.9084e-05,0.067,0.067,-0.105,-0.105
-9.9082e-05,0.069,0.069,-0.105,-0.105
-9.9080e-05,0.069,0.069,-0.107,-0.107
-9.9078e-05,0.069,0.069,-0.105,-0.105
-9.9076e-05,0.067,0.067,-0.105,-0.107
-9.9074e-05,0.067,0.069,-0.107,-0.105
-9.9072e-05,0.069,0.067,-0.105,-0.107
-9.9070e-05,0.069,0.069,-0.107,-0.105
-9.9068e-05,0.067,0.067,-0.105,-0.107
-9.9066e-05,0.067,0.067,-0.107,-0.105
-9.9064e-05,0.069,0.067,-0.107,-0.107
-9.9062e-05,0.067,0.069,-0.107,-0.105
-9.9060e-05,0.071,0.069,-0.107,-0.107
-9.9058e-05,0.071,0.071,-0.107,-0.105
-9.9056e-05,0.069,0.069,-0.107,-0.107
-9.9054e-05,0.069,0.069,-0.105,-0.105
-9.9052e-05,0.067,0.067,-0.107,-0.107
-9.9050e-05,0.067,0.067,-0.105,-0.103
-9.9048e-05,0.065,0.065,-0.105,-0.107
-9.9046e-05,0.067,0.067,-0.107,-0.105
-9.9044e-05,0.065,0.065,-0.107,-0.107
-9.9042e-05,0.065,0.065,-0.107,-0.105
-9.9040e-05,0.065,0.065,-0.105,-0.107
-9.9038e-05,0.065,0.065,-0.107,-0.105
-9.9036e-05,0.065,0.063,-0.107,-0.107
-9.9034e-05,0.063,0.065,-0.107,-0.105
-9.9032e-05,0.065,0.063,-0.107,-0.109
-9.9030e-05,0.065,0.065,-0.109,-0.105
-9.9028e-05,0.065,0.063,-0.105,-0.107
-9.9026e-05,0.063,0.065,-0.107,-0.105
-9.9024e-05,0.063,0.063,-0.107,-0.107
-9.9022e-05,0.067,0.067,-0.107,-0.105
-9.9020e-05,0.065,0.063,-0.105,-0.105
-9.9018e-05,0.065,0.067,-0.105,-0.105
-9.9016e-05,0.065,0.063,-0.107,-0.107
-9.9014e-05,0.063,0.065,-0.107,-0.105
-9.9012e-05,0.065,0.063,-0.107,-0.107
-9.9010e-05,0.065,0.065,-0.107,-0.105
-9.9008e-05,0.067,0.065,-0.105,-0.107
-9.9006e-05,0.065,0.067,-0.107,-0.105
-9.9004e-05,0.065,0.065,-0.107,-0.107
-9.9002e-05,0.067,0.067,-0.107,-0.105
-9.9000e-05,0.067,0.065,-0.105,-0.107
-9.8998e-05,0.067,0.067,-0.107,-0.105
-9.8996e-05,0.067,0.067,-0.105,-0.107
-9.8994e-05,0.067,0.067,-0.107,-0.105
-9.8992e-05,0.067,0.067,-0.105,-0.105
-9.8990e-05,0.067,0.067,-0.105,-0.105
-9.8988e-05,0.067,0.067,-0.107,-0.107
-9.8986e-05,0.067,0.069,-0.107,-0.105
-9.8984e-05,0.067,0.065,-0.109,-0.109
-9.8982e-05,0.065,0.067,-0.107,-0.105
-9.8980e-05,0.065,0.065,-0.105,-0.107
-9.8978e-05,0.067,0.067,-0.107,-0.105
-9.8976e-05,0.065,0.065,-0.107,-0.107
-9.8974e-05,0.065,0.065,-0.107,-0.105
-9.8972e-05,0.067,0.065,-0.107,-0.107
-9.8970e-05,0.067,0.067,-0.107,-0.105
