LockInHall/data/A2_fixedPhase/6400Hz_PhaseShift30.CSV

Model,DPO2024
Firmware Version,1.52

Point Format,Y,,,
Horizontal Units,S,,,
Horizontal Scale,4e-05,,,
Sample Interval,4e-09,,,
Filter Frequency,2e+08,,,
Record Length,100000,,,
Gating,0.0% to 100.0%,,0.0% to 100.0%,
Probe Attenuation,1,,1,
Vertical Units,V,,V,
Vertical Offset,0,,0,
Vertical Scale,0.05,,0.05,
Label,,,,
TIME,CH1,CH1 Peak Detect,CH2,CH2 Peak Detect
-2.00000e-04,0.011,0.007,-0.109,-0.109
-1.99996e-04,0.011,0.011,-0.107,-0.105
-1.99992e-04,0.007,0.007,-0.109,-0.109
-1.99988e-04,0.009,0.009,-0.107,-0.105
-1.99984e-04,0.007,0.005,-0.107,-0.109
-1.99980e-04,0.009,0.009,-0.107,-0.107
-1.99976e-04,0.009,0.007,-0.107,-0.107
-1.99972e-04,0.011,0.011,-0.107,-0.105
-1.99968e-04,0.011,0.011,-0.107,-0.107
-1.99964e-04,0.013,0.013,-0.107,-0.105
-1.99960e-04,0.011,0.011,-0.107,-0.107
-1.99956e-04,0.015,0.015,-0.107,-0.105
-1.99952e-04,0.013,0.011,-0.107,-0.109
-1.99948e-04,0.013,0.013,-0.107,-0.107
-1.99944e-04,0.011,0.009,-0.107,-0.109
-1.99940e-04,0.009,0.013,-0.109,-0.105
-1.99936e-04,0.011,0.009,-0.107,-0.109
-1.99932e-04,0.009,0.011,-0.107,-0.105
-1.99928e-04,0.009,0.007,-0.107,-0.109
-1.99924e-04,0.009,0.009,-0.105,-0.105
-1.99920e-04,0.007,0.005,-0.107,-0.107
-1.99916e-04,0.009,0.009,-0.105,-0.105
-1.99912e-04,0.009,0.007,-0.105,-0.109
-1.99908e-04,0.009,0.011,-0.107,-0.103
-1.99904e-04,0.009,0.007,-0.107,-0.107
-1.99900e-04,0.009,0.009,-0.107,-0.105
-1.99896e-04,0.009,0.007,-0.107,-0.107
-1.99892e-04,0.007,0.009,-0.107,-0.105
-1.99888e-04,0.009,0.009,-0.107,-0.107
-1.99884e-04,0.009,0.009,-0.105,-0.105
-1.99880e-04,0.007,0.007,-0.107,-0.109
-1.99876e-04,0.007,0.009,-0.105,-0.105
-1.99872e-04,0.007,0.007,-0.107,-0.109
-1.99868e-04,0.007,0.007,-0.107,-0.105
-1.99864e-04,0.009,0.007,-0.107,-0.109
-1.99860e-04,0.007,0.009,-0.109,-0.105
-1.99856e-04,0.009,0.007,-0.107,-0.109
-1.99852e-04,0.009,0.009,-0.107,-0.105
-1.99848e-04,0.011,0.009,-0.107,-0.107
-1.99844e-04,0.011,0.011,-0.107,-0.105
-1.99840e-04,0.013,0.009,-0.107,-0.107
-1.99836e-04,0.009,0.013,-0.107,-0.105
-1.99832e-04,0.007,0.007,-0.107,-0.109
-1.99828e-04,0.007,0.009,-0.105,-0.105
-1.99824e-04,0.009,0.005,-0.107,-0.109
-1.99820e-04,0.007,0.009,-0.109,-0.105
-1.99816e-04,0.007,0.005,-0.107,-0.109
-1.99812e-04,0.007,0.007,-0.107,-0.105
-1.99808e-04,0.007,0.005,-0.107,-0.109
-1.99804e-04,0.005,0.007,-0.107,-0.105
-1.99800e-04,0.005,0.005,-0.107,-0.107
-1.99796e-04,0.007,0.009,-0.105,-0.105
-1.99792e-04,0.007,0.005,-0.107,-0.107
-1.99788e-04,0.007,0.007,-0.107,-0.103
-1.99784e-04,0.007,0.007,-0.107,-0.107
-1.99780e-04,0.009,0.009,-0.107,-0.105
-1.99776e-04,0.007,0.007,-0.107,-0.109
-1.99772e-04,0.009,0.009,-0.107,-0.105
-1.99768e-04,0.011,0.007,-0.105,-0.107
-1.99764e-04,0.007,0.011,-0.107,-0.105
-1.99760e-04,0.009,0.007,-0.107,-0.107
-1.99756e-04,0.007,0.009,-0.107,-0.103
-1.99752e-04,0.007,0.007,-0.109,-0.109
-1.99748e-04,0.007,0.007,-0.107,-0.103
-1.99744e-04,0.007,0.007,-0.107,-0.109
-1.99740e-04,0.009,0.009,-0.109,-0.105
-1.99736e-04,0.011,0.009,-0.105,-0.109
-1.99732e-04,0.009,0.011,-0.109,-0.103
-1.99728e-04,0.013,0.009,-0.107,-0.107
-1.99724e-04,0.011,0.013,-0.105,-0.105
-1.99720e-04,0.009,0.009,-0.107,-0.107
-1.99716e-04,0.011,0.011,-0.105,-0.105
-1.99712e-04,0.009,0.007,-0.105,-0.109
-1.99708e-04,0.009,0.009,-0.107,-0.105
-1.99704e-04,0.007,0.005,-0.107,-0.107
-1.99700e-04,0.007,0.009,-0.103,-0.103
-1.99696e-04,0.007,0.007,-0.107,-0.107
-1.99692e-04,0.007,0.009,-0.107,-0.103
-1.99688e-04,0.009,0.005,-0.107,-0.107
-1.99684e-04,0.007,0.009,-0.107,-0.103
-1.99680e-04,0.007,0.007,-0.105,-0.105
-1.99676e-04,0.011,0.011,-0.105,-0.103
-1.99672e-04,0.009,0.009,-0.107,-0.107
-1.99668e-04,0.011,0.011,-0.107,-0.105
-1.99664e-04,0.013,0.009,-0.107,-0.107
-1.99660e-04,0.011,0.013,-0.107,-0.105
-1.99656e-04,0.013,0.011,-0.105,-0.109
-1.99652e-04,0.011,0.013,-0.109,-0.105
-1.99648e-04,0.011,0.011,-0.107,-0.107
-1.99644e-04,0.011,0.011,-0.107,-0.105
-1.99640e-04,0.007,0.007,-0.107,-0.107
-1.99636e-04,0.007,0.009,-0.107,-0.105
-1.99632e-04,0.007,0.007,-0.107,-0.107
-1.99628e-04,0.007,0.009,-0.107,-0.105
-1.99624e-04,0.009,0.007,-0.107,-0.107
-1.99620e-04,0.007,0.009,-0.107,-0.105
-1.99616e-04,0.009,0.007,-0.107,-0.107
-1.99612e-04,0.011,0.011,-0.107,-0.105
-1.99608e-04,0.009,0.007,-0.107,-0.107
-1.99604e-04,0.009,0.011,-0.107,-0.105
-1.99600e-04,0.007,0.007,-0.107,-0.109
-1.99596e-04,0.009,0.009,-0.105,-0.105
-1.99592e-04,0.007,0.005,-0.107,-0.107
-1.99588e-04,0.005,0.007,-0.107,-0.105
-1.99584e-04,0.007,0.005,-0.107,-0.109
-1.99580e-04,0.007,0.007,-0.109,-0.105
-1.99576e-04,0.007,0.005,-0.107,-0.107
-1.99572e-04,0.007,0.007,-0.107,-0.105
-1.99568e-04,0.007,0.007,-0.107,-0.107
-1.99564e-04,0.009,0.009,-0.105,-0.105
-1.99560e-04,0.009,0.007,-0.107,-0.107
-1.99556e-04,0.009,0.009,-0.105,-0.105
-1.99552e-04,0.009,0.007,-0.107,-0.107
-1.99548e-04,0.011,0.011,-0.107,-0.105
-1.99544e-04,0.009,0.009,-0.107,-0.107
-1.99540e-04,0.009,0.011,-0.107,-0.105
-1.99536e-04,0.009,0.007,-0.107,-0.107
-1.99532e-04,0.007,0.009,-0.107,-0.105
-1.99528e-04,0.007,0.005,-0.107,-0.107
-1.99524e-04,0.005,0.007,-0.105,-0.105
-1.99520e-04,0.005,0.005,-0.107,-0.107
-1.99516e-04,0.007,0.007,-0.105,-0.103
-1.99512e-04,0.003,0.003,-0.107,-0.107
-1.99508e-04,0.009,0.009,-0.107,-0.105
-1.99504e-04,0.009,0.007,-0.105,-0.107
-1.99500e-04,0.007,0.009,-0.107,-0.103
-1.99496e-04,0.009,0.007,-0.107,-0.107
-1.99492e-04,0.007,0.009,-0.105,-0.105
-1.99488e-04,0.007,0.007,-0.107,-0.107
-1.99484e-04,0.007,0.009,-0.107,-0.105
-1.99480e-04,0.005,0.005,-0.107,-0.107
-1.99476e-04,0.007,0.007,-0.107,-0.105
-1.99472e-04,0.005,0.003,-0.107,-0.107
-1.99468e-04,0.005,0.005,-0.107,-0.105
-1.99464e-04,0.005,0.005,-0.107,-0.107
-1.99460e-04,0.005,0.007,-0.107,-0.105
-1.99456e-04,0.005,0.005,-0.107,-0.107
-1.99452e-04,0.007,0.007,-0.107,-0.105
-1.99448e-04,0.007,0.005,-0.107,-0.107
-1.99444e-04,0.007,0.007,-0.107,-0.103
-1.99440e-04,0.007,0.007,-0.107,-0.107
-1.99436e-04,0.009,0.011,-0.107,-0.105
-1.99432e-04,0.009,0.007,-0.107,-0.107
-1.99428e-04,0.009,0.009,-0.105,-0.103
-1.99424e-04,0.007,0.007,-0.105,-0.107
-1.99420e-04,0.009,0.009,-0.107,-0.103
-1.99416e-04,0.007,0.005,-0.105,-0.109
-1.99412e-04,0.007,0.007,-0.109,-0.103
-1.99408e-04,0.005,0.003,-0.105,-0.109
-1.99404e-04,0.005,0.007,-0.105,-0.103
-1.99400e-04,0.007,0.005,-0.107,-0.107
-1.99396e-04,0.007,0.007,-0.105,-0.105
-1.99392e-04,0.007,0.005,-0.107,-0.107
-1.99388e-04,0.009,0.009,-0.105,-0.105
-1.99384e-04,0.009,0.007,-0.107,-0.107
-1.99380e-04,0.011,0.011,-0.107,-0.105
-1.99376e-04,0.009,0.007,-0.109,-0.109
-1.99372e-04,0.009,0.011,-0.107,-0.105
-1.99368e-04,0.011,0.009,-0.107,-0.109
-1.99364e-04,0.009,0.011,-0.107,-0.103
-1.99360e-04,0.009,0.007,-0.107,-0.107
-1.99356e-04,0.009,0.011,-0.107,-0.105
-1.99352e-04,0.005,0.005,-0.107,-0.107
-1.99348e-04,0.009,0.009,-0.105,-0.105
-1.99344e-04,0.009,0.007,-0.105,-0.107
-1.99340e-04,0.007,0.011,-0.107,-0.105
-1.99336e-04,0.009,0.007,-0.107,-0.107
-1.99332e-04,0.007,0.009,-0.105,-0.103
-1.99328e-04,0.009,0.007,-0.107,-0.107
-1.99324e-04,0.009,0.011,-0.107,-0.105
-1.99320e-04,0.009,0.007,-0.107,-0.107
-1.99316e-04,0.011,0.011,-0.107,-0.105
-1.99312e-04,0.011,0.007,-0.107,-0.107
-1.99308e-04,0.007,0.011,-0.107,-0.105
-1.99304e-04,0.007,0.005,-0.107,-0.109
-1.99300e-04,0.007,0.009,-0.109,-0.103
-1.99296e-04,0.007,0.005,-0.107,-0.109
-1.99292e-04,0.007,0.007,-0.107,-0.105
-1.99288e-04,0.007,0.003,-0.107,-0.107
-1.99284e-04,0.007,0.007,-0.107,-0.105
-1.99280e-04,0.005,0.005,-0.107,-0.107
-1.99276e-04,0.007,0.007,-0.107,-0.105
-1.99272e-04,0.009,0.007,-0.107,-0.107
-1.99268e-04,0.009,0.009,-0.107,-0.105
-1.99264e-04,0.009,0.009,-0.107,-0.107
-1.99260e-04,0.011,0.011,-0.107,-0.105
-1.99256e-04,0.009,0.007,-0.107,-0.107
-1.99252e-04,0.007,0.011,-0.107,-0.103
-1.99248e-04,0.007,0.007,-0.107,-0.109
-1.99244e-04,0.007,0.007,-0.107,-0.103
-1.99240e-04,0.007,0.005,-0.107,-0.111
-1.99236e-04,0.005,0.007,-0.107,-0.105
-1.99232e-04,0.005,0.005,-0.107,-0.107
-1.99228e-04,0.005,0.007,-0.107,-0.105
-1.99224e-04,0.005,0.003,-0.107,-0.107
-1.99220e-04,0.007,0.007,-0.107,-0.105
-1.99216e-04,0.007,0.005,-0.107,-0.107
-1.99212e-04,0.007,0.007,-0.107,-0.105
-1.99208e-04,0.009,0.007,-0.107,-0.107
-1.99204e-04,0.009,0.011,-0.107,-0.105
-1.99200e-04,0.009,0.009,-0.109,-0.109
-1.99196e-04,0.009,0.009,-0.107,-0.103
-1.99192e-04,0.007,0.005,-0.107,-0.107
-1.99188e-04,0.005,0.007,-0.107,-0.105
-1.99184e-04,0.005,0.003,-0.107,-0.107
-1.99180e-04,0.005,0.007,-0.107,-0.103
-1.99176e-04,0.005,0.003,-0.105,-0.109
-1.99172e-04,0.003,0.005,-0.103,-0.103
-1.99168e-04,0.005,0.003,-0.105,-0.105
-1.99164e-04,0.005,0.007,-0.105,-0.103
-1.99160e-04,0.005,0.003,-0.107,-0.107
-1.99156e-04,0.007,0.007,-0.105,-0.103
-1.99152e-04,0.007,0.005,-0.107,-0.107
-1.99148e-04,0.009,0.009,-0.107,-0.105
-1.99144e-04,0.007,0.007,-0.105,-0.107
-1.99140e-04,0.007,0.009,-0.107,-0.105
-1.99136e-04,0.011,0.005,-0.107,-0.107
-1.99132e-04,0.005,0.011,-0.105,-0.105
-1.99128e-04,0.005,0.003,-0.107,-0.109
-1.99124e-04,0.005,0.007,-0.107,-0.105
-1.99120e-04,0.003,0.003,-0.107,-0.107
-1.99116e-04,0.003,0.005,-0.107,-0.105
-1.99112e-04,0.003,0.003,-0.107,-0.107
-1.99108e-04,0.003,0.003,-0.105,-0.103
-1.99104e-04,0.005,0.005,-0.107,-0.107
-1.99100e-04,0.005,0.007,-0.107,-0.105
-1.99096e-04,0.007,0.005,-0.105,-0.109
-1.99092e-04,0.009,0.009,-0.109,-0.105
-1.99088e-04,0.007,0.007,-0.105,-0.107
-1.99084e-04,0.009,0.009,-0.107,-0.105
-1.99080e-04,0.007,0.007,-0.109,-0.109
-1.99076e-04,0.009,0.009,-0.105,-0.105
-1.99072e-04,0.005,0.005,-0.107,-0.109
-1.99068e-04,0.009,0.009,-0.105,-0.105
-1.99064e-04,0.007,0.005,-0.109,-0.109
-1.99060e-04,0.005,0.007,-0.107,-0.105
-1.99056e-04,0.005,0.005,-0.107,-0.107
-1.99052e-04,0.007,0.007,-0.105,-0.103
-1.99048e-04,0.007,0.007,-0.107,-0.107
-1.99044e-04,0.009,0.009,-0.107,-0.105
-1.99040e-04,0.007,0.005,-0.107,-0.107
-1.99036e-04,0.011,0.011,-0.105,-0.103
-1.99032e-04,0.009,0.009,-0.107,-0.107
-1.99028e-04,0.011,0.011,-0.107,-0.105
-1.99024e-04,0.009,0.007,-0.107,-0.109
-1.99020e-04,0.009,0.009,-0.109,-0.105
-1.99016e-04,0.009,0.007,-0.105,-0.109
-1.99012e-04,0.007,0.009,-0.109,-0.105
-1.99008e-04,0.007,0.007,-0.107,-0.107
-1.99004e-04,0.009,0.009,-0.107,-0.105
-1.99000e-04,0.007,0.005,-0.107,-0.107
-1.98996e-04,0.007,0.007,-0.107,-0.105
-1.98992e-04,0.005,0.005,-0.107,-0.107
-1.98988e-04,0.007,0.007,-0.107,-0.105
-1.98984e-04,0.007,0.007,-0.107,-0.107
-1.98980e-04,0.007,0.009,-0.107,-0.105
-1.98976e-04,0.009,0.007,-0.105,-0.107
-1.98972e-04,0.007,0.011,-0.107,-0.105
-1.98968e-04,0.009,0.007,-0.107,-0.107
-1.98964e-04,0.007,0.011,-0.107,-0.103
-1.98960e-04,0.007,0.007,-0.107,-0.109
-1.98956e-04,0.007,0.009,-0.107,-0.107
-1.98952e-04,0.005,0.003,-0.107,-0.109
-1.98948e-04,0.005,0.007,-0.107,-0.105
-1.98944e-04,0.003,0.003,-0.109,-0.109
-1.98940e-04,0.005,0.007,-0.107,-0.105
-1.98936e-04,0.005,0.003,-0.107,-0.107
-1.98932e-04,0.003,0.007,-0.107,-0.103
-1.98928e-04,0.007,0.003,-0.105,-0.107
-1.98924e-04,0.007,0.007,-0.107,-0.103
-1.98920e-04,0.009,0.007,-0.107,-0.107
-1.98916e-04,0.009,0.009,-0.107,-0.105
-1.98912e-04,0.009,0.009,-0.107,-0.107
-1.98908e-04,0.009,0.011,-0.107,-0.105
-1.98904e-04,0.005,0.005,-0.109,-0.109
-1.98900e-04,0.007,0.007,-0.105,-0.103
-1.98896e-04,0.007,0.005,-0.107,-0.109
-1.98892e-04,0.005,0.007,-0.107,-0.105
-1.98888e-04,0.005,0.005,-0.105,-0.107
-1.98884e-04,0.005,0.005,-0.107,-0.105
-1.98880e-04,0.005,0.003,-0.107,-0.107
-1.98876e-04,0.005,0.007,-0.107,-0.105
-1.98872e-04,0.003,0.001,-0.107,-0.107
-1.98868e-04,0.009,0.009,-0.105,-0.105
-1.98864e-04,0.007,0.005,-0.109,-0.109
-1.98860e-04,0.007,0.007,-0.107,-0.103
-1.98856e-04,0.011,0.007,-0.107,-0.109
-1.98852e-04,0.007,0.011,-0.107,-0.105
-1.98848e-04,0.007,0.005,-0.107,-0.109
-1.98844e-04,0.005,0.007,-0.109,-0.105
-1.98840e-04,0.003,0.003,-0.109,-0.109
-1.98836e-04,0.005,0.007,-0.107,-0.105
-1.98832e-04,0.005,0.003,-0.107,-0.109
-1.98828e-04,0.005,0.005,-0.107,-0.105
-1.98824e-04,0.003,0.001,-0.105,-0.107
-1.98820e-04,0.003,0.005,-0.107,-0.105
-1.98816e-04,0.003,0.001,-0.105,-0.107
-1.98812e-04,0.005,0.005,-0.107,-0.103
-1.98808e-04,0.005,0.003,-0.105,-0.107
-1.98804e-04,0.007,0.007,-0.107,-0.103
-1.98800e-04,0.005,0.003,-0.107,-0.107
-1.98796e-04,0.005,0.007,-0.107,-0.105
-1.98792e-04,0.005,0.005,-0.107,-0.107
-1.98788e-04,0.005,0.007,-0.107,-0.105
-1.98784e-04,0.003,0.001,-0.107,-0.107
-1.98780e-04,0.003,0.005,-0.107,-0.105
-1.98776e-04,0.003,0.001,-0.107,-0.109
-1.98772e-04,0.001,0.005,-0.109,-0.105
-1.98768e-04,0.003,0.001,-0.105,-0.107
-1.98764e-04,0.005,0.005,-0.105,-0.103
-1.98760e-04,0.003,0.003,-0.107,-0.107
-1.98756e-04,0.005,0.005,-0.107,-0.103
-1.98752e-04,0.005,0.005,-0.105,-0.107
-1.98748e-04,0.007,0.007,-0.107,-0.105
-1.98744e-04,0.007,0.005,-0.107,-0.107
-1.98740e-04,0.007,0.007,-0.107,-0.105
-1.98736e-04,0.009,0.005,-0.107,-0.107
-1.98732e-04,0.007,0.009,-0.107,-0.103
-1.98728e-04,0.007,0.005,-0.105,-0.107
-1.98724e-04,0.005,0.007,-0.107,-0.103
-1.98720e-04,0.005,0.005,-0.107,-0.107
-1.98716e-04,0.005,0.005,-0.107,-0.105
-1.98712e-04,0.005,0.005,-0.107,-0.109
-1.98708e-04,0.007,0.007,-0.105,-0.103
-1.98704e-04,0.005,0.005,-0.109,-0.109
-1.98700e-04,0.007,0.007,-0.105,-0.105
-1.98696e-04,0.005,0.005,-0.107,-0.107
-1.98692e-04,0.007,0.007,-0.105,-0.103
-1.98688e-04,0.009,0.007,-0.105,-0.107
-1.98684e-04,0.009,0.009,-0.107,-0.103
-1.98680e-04,0.005,0.005,-0.107,-0.107
-1.98676e-04,0.009,0.009,-0.107,-0.105
-1.98672e-04,0.007,0.005,-0.107,-0.107
-1.98668e-04,0.005,0.007,-0.107,-0.103
-1.98664e-04,0.007,0.003,-0.105,-0.109
-1.98660e-04,0.003,0.007,-0.107,-0.105
-1.98656e-04,0.005,0.003,-0.107,-0.107
-1.98652e-04,0.003,0.005,-0.107,-0.103
-1.98648e-04,0.003,0.003,-0.107,-0.107
-1.98644e-04,0.005,0.005,-0.107,-0.105
-1.98640e-04,0.005,0.003,-0.107,-0.109
-1.98636e-04,0.007,0.007,-0.107,-0.105
-1.98632e-04,0.007,0.005,-0.107,-0.107
-1.98628e-04,0.007,0.007,-0.105,-0.105
-1.98624e-04,0.007,0.007,-0.107,-0.109
-1.98620e-04,0.007,0.009,-0.109,-0.103
-1.98616e-04,0.007,0.007,-0.109,-0.109
-1.98612e-04,0.009,0.009,-0.109,-0.105
-1.98608e-04,0.007,0.003,-0.107,-0.109
-1.98604e-04,0.003,0.007,-0.107,-0.105
-1.98600e-04,0.005,0.003,-0.107,-0.109
-1.98596e-04,0.005,0.005,-0.107,-0.105
-1.98592e-04,0.003,0.003,-0.107,-0.107
-1.98588e-04,0.005,0.005,-0.107,-0.105
-1.98584e-04,0.005,0.005,-0.105,-0.107
-1.98580e-04,0.005,0.007,-0.107,-0.105
-1.98576e-04,0.005,0.003,-0.107,-0.107
-1.98572e-04,0.007,0.007,-0.107,-0.105
-1.98568e-04,0.009,0.007,-0.107,-0.107
-1.98564e-04,0.007,0.009,-0.107,-0.105
-1.98560e-04,0.007,0.007,-0.107,-0.107
-1.98556e-04,0.007,0.007,-0.107,-0.105
-1.98552e-04,0.003,0.003,-0.109,-0.109
-1.98548e-04,0.005,0.007,-0.107,-0.105
-1.98544e-04,0.005,0.003,-0.107,-0.107
-1.98540e-04,0.003,0.005,-0.107,-0.105
-1.98536e-04,0.003,0.001,-0.107,-0.107
-1.98532e-04,0.001,0.003,-0.107,-0.105
-1.98528e-04,0.003,0.001,-0.107,-0.107
-1.98524e-04,0.001,0.003,-0.105,-0.103
-1.98520e-04,0.003,0.001,-0.107,-0.107
-1.98516e-04,0.005,0.005,-0.105,-0.103
-1.98512e-04,0.005,0.005,-0.107,-0.107
-1.98508e-04,0.005,0.007,-0.107,-0.103
-1.98504e-04,0.007,0.007,-0.107,-0.109
-1.98500e-04,0.007,0.007,-0.109,-0.105
-1.98496e-04,0.007,0.003,-0.107,-0.107
-1.98492e-04,0.003,0.007,-0.107,-0.105
-1.98488e-04,0.003,0.001,-0.107,-0.107
-1.98484e-04,0.001,0.005,-0.105,-0.103
-1.98480e-04,0.005,0.001,-0.107,-0.107
-1.98476e-04,0.001,0.005,-0.105,-0.105
-1.98472e-04,0.001,0.001,-0.107,-0.109
-1.98468e-04,0.003,0.003,-0.107,-0.105
-1.98464e-04,0.003,0.003,-0.109,-0.109
-1.98460e-04,0.003,0.003,-0.105,-0.105
-1.98456e-04,0.003,0.003,-0.105,-0.107
-1.98452e-04,0.005,0.005,-0.107,-0.105
-1.98448e-04,0.005,0.003,-0.105,-0.107
-1.98444e-04,0.005,0.005,-0.107,-0.105
-1.98440e-04,0.003,0.003,-0.107,-0.107
-1.98436e-04,0.003,0.005,-0.105,-0.105
-1.98432e-04,0.003,0.003,-0.107,-0.107
-1.98428e-04,0.003,0.003,-0.105,-0.105
-1.98424e-04,0.001,0.001,-0.105,-0.107
-1.98420e-04,0.003,0.003,-0.107,-0.103
-1.98416e-04,0.001,-0.001,-0.105,-0.105
-1.98412e-04,0.003,0.003,-0.105,-0.105
-1.98408e-04,0.003,0.003,-0.105,-0.109
-1.98404e-04,0.003,0.005,-0.105,-0.103
-1.98400e-04,0.005,0.003,-0.105,-0.105
-1.98396e-04,0.007,0.007,-0.105,-0.103
-1.98392e-04,0.005,0.005,-0.107,-0.107
-1.98388e-04,0.005,0.007,-0.105,-0.103
-1.98384e-04,0.007,0.007,-0.107,-0.107
-1.98380e-04,0.009,0.009,-0.107,-0.105
-1.98376e-04,0.007,0.003,-0.107,-0.107
-1.98372e-04,0.005,0.009,-0.107,-0.105
-1.98368e-04,0.007,0.005,-0.107,-0.107
-1.98364e-04,0.005,0.007,-0.107,-0.105
-1.98360e-04,0.003,0.003,-0.107,-0.107
-1.98356e-04,0.007,0.007,-0.105,-0.105
-1.98352e-04,0.003,0.003,-0.107,-0.107
-1.98348e-04,0.005,0.005,-0.107,-0.103
-1.98344e-04,0.005,0.005,-0.107,-0.107
-1.98340e-04,0.007,0.007,-0.107,-0.105
-1.98336e-04,0.009,0.005,-0.107,-0.107
-1.98332e-04,0.009,0.009,-0.107,-0.105
-1.98328e-04,0.007,0.005,-0.107,-0.109
-1.98324e-04,0.005,0.007,-0.109,-0.105
-1.98320e-04,0.005,0.005,-0.109,-0.109
-1.98316e-04,0.005,0.005,-0.107,-0.105
-1.98312e-04,0.003,0.003,-0.107,-0.107
-1.98308e-04,0.003,0.003,-0.105,-0.105
-1.98304e-04,0.003,0.001,-0.105,-0.107
-1.98300e-04,0.003,0.003,-0.107,-0.105
-1.98296e-04,0.003,0.001,-0.105,-0.107
-1.98292e-04,0.005,0.005,-0.107,-0.105
-1.98288e-04,0.003,0.003,-0.107,-0.107
-1.98284e-04,0.005,0.005,-0.107,-0.105
-1.98280e-04,0.007,0.005,-0.105,-0.107
-1.98276e-04,0.005,0.007,-0.105,-0.105
-1.98272e-04,0.005,0.005,-0.107,-0.107
-1.98268e-04,0.005,0.005,-0.105,-0.105
-1.98264e-04,0.005,0.005,-0.105,-0.109
-1.98260e-04,0.007,0.007,-0.109,-0.105
-1.98256e-04,0.003,0.003,-0.107,-0.109
-1.98252e-04,0.003,0.007,-0.107,-0.105
-1.98248e-04,0.005,0.001,-0.105,-0.107
-1.98244e-04,0.001,0.005,-0.107,-0.105
-1.98240e-04,0.003,0.001,-0.107,-0.107
-1.98236e-04,0.003,0.005,-0.105,-0.103
-1.98232e-04,0.003,0.003,-0.107,-0.107
-1.98228e-04,0.007,0.007,-0.105,-0.105
-1.98224e-04,0.005,0.003,-0.105,-0.107
-1.98220e-04,0.005,0.007,-0.107,-0.105
-1.98216e-04,0.005,0.003,-0.105,-0.109
-1.98212e-04,0.005,0.007,-0.109,-0.103
-1.98208e-04,0.005,0.003,-0.107,-0.107
-1.98204e-04,0.003,0.005,-0.107,-0.105
-1.98200e-04,0.003,-0.001,-0.109,-0.109
-1.98196e-04,-0.001,0.003,-0.107,-0.105
-1.98192e-04,-0.001,-0.001,-0.107,-0.107
-1.98188e-04,0.001,0.001,-0.107,-0.105
-1.98184e-04,0.001,0.001,-0.105,-0.109
-1.98180e-04,0.003,0.003,-0.109,-0.103
-1.98176e-04,0.001,0.001,-0.105,-0.107
-1.98172e-04,0.003,0.003,-0.107,-0.103
-1.98168e-04,0.005,0.003,-0.105,-0.107
-1.98164e-04,0.005,0.005,-0.105,-0.105
-1.98160e-04,0.003,0.003,-0.109,-0.109
-1.98156e-04,0.005,0.005,-0.107,-0.105
-1.98152e-04,0.003,0.001,-0.107,-0.107
-1.98148e-04,0.003,0.005,-0.107,-0.105
-1.98144e-04,0.001,0.001,-0.107,-0.107
-1.98140e-04,0.001,0.003,-0.107,-0.105
-1.98136e-04,0.001,-0.001,-0.107,-0.107
-1.98132e-04,-0.001,0.001,-0.107,-0.105
-1.98128e-04,-0.001,-0.003,-0.105,-0.107
-1.98124e-04,-0.001,-0.001,-0.105,-0.103
-1.98120e-04,0.001,-0.001,-0.107,-0.109
-1.98116e-04,0.001,0.001,-0.105,-0.105
-1.98112e-04,0.003,-0.001,-0.105,-0.105
-1.98108e-04,0.001,0.003,-0.105,-0.103
-1.98104e-04,0.001,0.001,-0.107,-0.107
-1.98100e-04,0.003,0.003,-0.107,-0.105
-1.98096e-04,0.003,0.001,-0.107,-0.107
-1.98092e-04,0.003,0.005,-0.107,-0.105
-1.98088e-04,0.003,0.001,-0.107,-0.107
-1.98084e-04,0.001,0.003,-0.105,-0.103
-1.98080e-04,-0.001,-0.001,-0.107,-0.107
-1.98076e-04,0.001,0.001,-0.107,-0.105
-1.98072e-04,0.001,-0.001,-0.107,-0.107
-1.98068e-04,0.001,0.003,-0.105,-0.103
-1.98064e-04,0.001,-0.001,-0.105,-0.107
-1.98060e-04,0.003,0.003,-0.107,-0.105
-1.98056e-04,0.003,0.003,-0.107,-0.107
-1.98052e-04,0.003,0.003,-0.107,-0.103
-1.98048e-04,0.007,0.001,-0.107,-0.107
-1.98044e-04,0.007,0.007,-0.105,-0.105
-1.98040e-04,0.005,0.005,-0.107,-0.107
-1.98036e-04,0.005,0.007,-0.105,-0.103
-1.98032e-04,0.005,0.003,-0.107,-0.107
-1.98028e-04,0.003,0.005,-0.107,-0.105
-1.98024e-04,0.003,0.001,-0.107,-0.109
-1.98020e-04,0.001,0.003,-0.109,-0.105
-1.98016e-04,0.003,0.001,-0.107,-0.107
-1.98012e-04,0.001,0.003,-0.107,-0.105
-1.98008e-04,0.003,0.001,-0.107,-0.107
-1.98004e-04,0.003,0.003,-0.105,-0.103
-1.98000e-04,0.003,0.001,-0.107,-0.107
-1.97996e-04,0.005,0.005,-0.105,-0.103
-1.97992e-04,0.001,0.001,-0.107,-0.107
